no. question;no. cluster;no. sous-cluster;description;pourcentage
16c;1;-;Supprimer des assemblées;39.4
16c;1;1;Supprimer le Sénat;20.0
16c;1;2;Supprimer le CESE;19.6
16c;1;3;Supprimer les assemblées (sans précision);13.1
16c;1;4;Fusionner le Sénat et le CESE;1.5
16c;1;5;Supprimer les CESER;0.6
16c;2;-;Réduire le rôle ou mieux contrôler les assemblées;17.8
16c;2;1;Elire le Sénat au scrutin universel direct;10.5
16c;2;2;Réduire le nombre de députés;6.9
16c;2;3;Publier et réduire les dépenses du Parlement;2.5
16c;2;4;Renforcer les pouvoirs de la Cour des Comptes;1.0
16c;2;5;Supprimer les avantages des parlementaires;0.7
16c;3;-;Modifier les modes d'élection des assemblées;6.5
16c;3;1;Elire le Parlement au scrutin proportionnel;3.0
16c;3;2;Elire le Sénat au scrutin universel direct;1.8
16c;3;3;Modifier le mode de scrutin pour l'élection du Parlement;1.1
16c;3;4;Modifier la sélection des grands électeurs pour l'élection du Sénat;0.7
16c;3;5;Elargir et modifier le mode de nomination des membres du Conseil constitutionnel;0.7
16c;4;-;Changer les pratiques des élus;6.4
16c;4;1;Réduire le nombre, les rémunérations et les avantages des élus;2.9
16c;4;2;Renforcer l'exemplarité des élus;1.8
16c;4;3;Améliorer la représentativité des élus;1.1
16c;4;4;Rendre la présence des parlementaires obligatoire;0.6
16c;5;-;Favoriser la participation citoyenne;5.4
16c;5;1;Intégrer des personnes issues de la société civile;2.0
16c;5;2;Ouvrir le Parlement aux associations;1.6
16c;5;3;Organiser un référendum sur la suppression du Sénat;0.9
16c;5;4;Intégrer les syndicats dans les assemblées;0.9
16c;5;5;Créer une assemblée citoyenne à la place du Sénat;0.6
16c;6;-;Renforcer les assemblées;3.9
16c;6;1;Renforcer le rôle de l'Assemblée nationale;3.5
16c;6;2;Renforcer le rôle du CESE;0.4
16c;7;-;Réformer l'organisation de la République;2.7
16c;7;1;Réformer notre démocratie;1.0
16c;7;2;Elire tous les parlementaires au suffrage universel direct;0.5
16c;7;3;Réduire l'influence des partis politiques;0.5
16c;8;-;Ouvrir le Parlement aux institutions locales;1.7
16c;8;1;Plus de compétences pour les régions;0.5
16c;9;-;Autres contributions trop peu citées ou inclassables;12.1
16c;10;-;Non réponses;18.8
34;1;-;Les valeurs à défendre;9.1
34;1;1;Davantage respecter les autres;4.1
34;1;2;Renforcer le principe d'égalité;2.8
34;1;3;Renforcer les libertés individuelles;2.8
34;1;4;Mettre en application les valeurs de la République : « liberté égalité fraternité »;0.9
34;1;5;Encourager plus de solidarité;0.9
34;1;6;Améliorer le vivre ensemble;0.7
34;1;7;Renforcer le principe d'équité;0.5
34;2;-;Les changements à mener dans le domaine social;7.7
34;2;1;Revoir le système de retraite;3.2
34;2;2;Faire de la santé une priorité;1.7
34;2;3;Résoudre les problèmes de logement pour les étudiants;1.3
34;2;4;Lutter contre le chômage;1.1
34;2;5;Soutenir les handicapés;0.7
34;2;6;Limiter les gros salaires (hauts fonctionnaires, élus, grands patrons...);0.7
34;2;7;Augmenter le pouvoir d'achat;0.7
34;2;8;Une meilleur reconnaissance des droits des sourds français (langue des signes, égalité avec les entendants..);0.6
34;2;9;Améliorer la prise en charge par la Sécurité sociale;0.6
34;2;10;Aider et accompagner les personnes âgées davantage;0.4
34;3;-;La participation et la prise en compte des citoyens;6.3
34;3;1;Faire plus de référendums;3.1
34;3;2;Mettre en place le Référendum d'Initiative Citoyenne (RIC);2.3
34;3;3;Favoriser l'Intérêt général;0.8
34;3;4;Ne pas mettre en place de démocratie participative;0.7
34;3;5;Introduire plus de représentativité dans les institutions politiques;0.6
34;3;6;Réformer la démocratie représentative;0.5
34;4;-;Les changements à mener dans le domaine de la Justice et de la sécurité;6.1
34;4;1;Revoir le système juridique;2.8
34;4;2;Faire de la sécurité une priorité;1.6
34;4;3;Réguler les réseaux sociaux;1.0
34;4;4;Sanctionner les actes de violence dans les manifestations par des amendes;0.8
34;4;5;Redonner du pouvoir à la police;0.8
34;4;6;Arrêter les casseurs;0.5
34;4;7;Revenir sur l’abaissement de la limitation de vitesse à 80 km/h;0.5
34;5;-;Les élus et les institutions doivent faire preuve d'exemplarité et de transparence;6.0
34;5;1;Assurer une meilleure représentativité des élus;2.9
34;5;2;Assurer plus de transparence de l'Etat et des institutions;1.0
34;5;3;Assurer plus de transparence concernant le financement des partis politiques;0.9
34;5;4;Imposer l'exemplarité des élus;0.5
34;5;5;Abolir les avantages de la fonction publique (temps de travail, âge de départ à la retraite...);0.5
34;5;6;Le casier judiciaire vierge doit être un préalable impératif à la fonction d'élu;0.4
34;6;-;Les changements à mener en matière de règles électorales;5.5
34;6;1;Revoir le système des élections législatives;2.7
34;6;2;Prendre en compte le vote blanc;1.3
34;6;3;Revoir le système de l'élection présidentielle;1.0
34;6;4;Revoir le système des élections présidentielle / législatives / régionales;1.0
34;6;5;Ne pas donner le droit de vote aux étrangers;0.7
34;6;6;Mettre en place le vote obligatoire;0.7
34;7;-;Les changements à mener au niveau de l'éducation, de la citoyenneté;4.9
34;7;1;Revoir le système scolaire;2.5
34;7;2;Former les Français à la citoyenneté;2.0
34;7;3;Promouvoir L'éducation civique;0.5
34;8;-;L'immigration;3.5
34;8;1;Stopper ou réduire l'immigration;1.8
34;8;2;Supprimer la double nationalité;1.8
34;8;3;Contrôler l'immigration;0.5
34;9;-;Les changements à mener dans le domaine des services publics;3.4
34;9;1;Réduire les dépenses publiques;1.7
34;9;2;Améliorer les services publics;1.0
34;9;3;Améliorer le transport et sa prise en charge;0.9
34;9;4;Réorganiser l'administration et les institutions publiques;0.6
34;10;-;Les réformes des institutions;3.2
34;10;1;Supprimer le Sénat;1.6
34;10;2;Réorganiser L'Assemblée Nationale;1.5
34;10;3;Réformer le Conseil constitutionnel;0.7
34;10;4;Supprimer le CESE;0.5
34;11;-;Les grandes questions de société;2.9
34;11;1;Autoriser l'euthanasie;1.0
34;11;2;Faire attention à l'environnement;0.9
34;11;3;Favoriser la Procréation Médicalement Assistée (PMA) pour tous;0.6
34;11;4;Rétablir la peine de mort;0.5
34;12;-;Les changements à mener au niveau des corps intermédiaires;2.7
34;12;1;Soutenir les associations;2.0
34;12;2;Réorganiser les syndicats;0.9
34;13;-;Les changements à mener en matière de fiscalité;2.6
34;13;1;Arrêter de faire payer trop d'impôts aux classes moyennes;2.1
34;14;-;Les changements à mener au niveau des collectivités territoriales;2.3
34;14;1;Redéfinir les rôles des maires;1.2
34;14;2;Décentraliser en donnant plus de pouvoir aux régions;0.9
34;14;3;Diminuer le nombre de collectivités territoriales;0.8
34;15;-;Les changements à mener au niveau européen;0.5
34;15;1;Quitter l'Union européenne;0.5
34;16;-;Non;3.9
34;17;-;Autres contributions trop peu citées ou inclassables;17.9
34;18;-;Non réponses;50.0
5;1;-;Introduire la proportionnelle;42.2
5;1;1;Instaurer une dose de proportionnelle;40.8
5;1;2;Instaurer la proportionnelle intégrale;1.7
5;2;-;Autres contributions;9.8
5;2;1;Autres éléments sur les partis politiques;2.5
5;2;2;Autres éléments sur la démocratie;1.7
5;2;3;Autres éléments sur les élus;1.1
5;2;4;Autres éléments sur les députés;0.9
5;2;5;Autres éléments sur l'élection présidentielle;0.8
5;2;6;Autres éléments sur le respect;0.8
5;2;7;Autres éléments sur les associations;0.5
5;2;8;Autres éléments sur les formations;0.5
5;3;-;Modifier les règles des scrutins;8.0
5;3;1;Prendre en compte le vote blanc;2.6
5;3;2;Réformer les élections législatives;1.9
5;3;3;Conserver le scrutin majoritaire;1.1
5;3;4;Instaurer le vote obligatoire;0.9
5;3;5;Réglementer le temps de parole pendant les campagnes;0.5
5;3;6;L'importance d'une majorité stable;0.4
5;4;-;Réformer le Parlement;3.7
5;4;1;Améliorer la représentativité de l'Assemblée nationale;2.6
5;4;2;Réformer ou supprimer le Sénat;1.6
5;5;-;Renforcer la démocratie directe;1.9
5;5;1;Des référendums;1.0
5;5;2;Le Référendum d'Initiative Citoyenne (RIC);0.7
5;6;-;Impliquer la société civile;0.4
5;7;-;Rien;0.6
5;8;-;Autres contributions trop peu citées ou inclassables;20.0
5;9;-;Non réponses;31.5
2b;1;-;La société civile;51.1
2b;1;1;Donner un rôle plus important à toutes les associations de citoyens;43.1
2b;1;2;Donner un rôle important aux associations de consommateurs;3.0
2b;1;3;Renforcer les associations défendant les valeurs de la démocratie;1.8
2b;1;4;Associer les associations culturelles et sportives aux décisions locales (municipalités);1.7
2b;1;5;Donner un rôle important aux corps intermédiaires;1.6
2b;1;6;Renforcer les associations d'intérêt général;1.4
2b;1;7;Renforcer les associations qui créent du lien social;1.1
2b;1;8;Renforcer le rôle consultatif des associations humanitaires;1.0
2b;1;9;Renforcer des associations de solidarité locale;0.8
2b;1;10;Renforcer les associations en lien avec le logement;0.8
2b;1;11;Associer la société civile aux décisions;0.8
2b;1;12;Intégrer les associations de gilets jaunes et les faire participer à la vie de la cité;0.5
2b;1;13;Renforcer le rôle consultatif des associations culturelles;0.5
2b;1;14;Renforcer le rôle des associations sportives;0.4
2b;2;-;Les acteurs du monde du travail;38.5
2b;2;1;Les syndicats (CGT,CFDT, Medef....);34.2
2b;2;2;Représenter et défendre les salariés par branche;2.9
2b;2;3;Renforcer le rôle des syndicats professionnels dans les entreprises;2.2
2b;2;4;Donner un rôle plus important aux associations professionnelles;0.8
2b;2;5;Renforcer les associations de formation;0.8
2b;3;-;Les préconisations;11.3
2b;3;1;Donner aux associations un vrai rôle consultatif et une capacité de proposition;4.4
2b;3;2;Donner un rôle important aux associations d'utilité publique;2.5
2b;3;3;S'assurer de la représentativité des associations et syndicats;1.6
2b;3;4;Instaurer la transparence dans le financement du monde associatif;0.6
2b;3;5;Créer des associations d'usagers des services publics;0.5
2b;3;6;Faire des associations/organisations de véritables organes de décisions politiques;0.4
2b;4;-;Les acteurs de la protection de l'environnement;6.4
2b;4;1;Donner un rôle important aux associations écologiques;6.4
2b;5;-;Les acteurs du monde de la santé;3.6
2b;5;1;Renforcer des associations de santé indépendantes;1.7
2b;5;2;Renforcer les associations pour les handicapés;1.0
2b;5;3;Renforcer des associations de solidarité locale;0.8
2b;5;4;Renforcer les associations pour les personnes âgées;0.4
2b;6;-;Les acteurs caritatifs;3.3
2b;6;1;Renforcer les associations caritatives (Secours populaire, Emmaüs, Fondation Abbé Pierre...);3.3
2b;7;-;Les transformations institutionnelles;1.8
2b;7;1;Renforcer les prérogatives du Conseil Economique social et environnemental (CESE);1.3
2b;7;2;Réformer le Sénat (remplacer, renouveler);0.7
2b;8;-;Un rôle de compensation des manquements de l'Etat;1.7
2b;8;1;Combler les manquements de l'Etat;1.5
2b;9;-;Les autres acteurs;1.2
2b;9;1;Renforcer les associations en lien avec le logement;0.8
2b;9;2;Renforcer des associations familales;0.4
2b;10;-;Mettre en place le Référendum d'Initiative Citoyenne (RIC);1.0
2b;10;1;Encourager les Référendums d'Initiative Citoyenne (RIC) par des associations populaires;0.7
2b;11;-;Autres contributions trop peu citées ou inclassables;14.7
2b;12;-;Non réponses;10.9
7c;1;-;Les sénateurs;24.3
7c;1;1;Les Sénateurs;19.3
7c;1;2;Supprimer le Sénat;6.2
7c;2;-;Les députés;21.1
7c;2;1;Les députés;21.1
7c;3;-;Les élus régionaux;13.1
7c;3;1;Les conseillers régionaux;7.9
7c;3;2;Les régions;5.6
7c;4;-;Le niveau intercommunal;13.0
7c;4;1;Les communautés de communes;7.9
7c;4;2;Les intercommunalités;5.4
7c;5;-;Les élus départementaux;9.9
7c;5;1;Les Conseillers départementaux;9.9
7c;6;-;Les élus communaux;7.2
7c;6;1;Les communes;4.5
7c;6;2;Trop d'élus dans les mairies;3.0
7c;7;-;Les élus (sans précision);5.7
7c;7;1;Les élus (sans précision);5.4
7c;8;-;Les élus locaux;4.9
7c;8;1;Les élus locaux (sans précision);2.7
7c;8;2;Les collectivités locales;2.0
7c;9;-;Réduire la dépense publique;2.7
7c;9;1;Faire des économies sur les dépenses publiques;1.0
7c;9;2;Réduire les retraites des anciens élus;0.6
7c;9;3;Trop d'impôts (pour payer les élus, gaspillage);0.4
7c;10;-;L'administration;2.6
7c;10;1;Réduire les différents niveaux administratifs de l'Etat;2.2
7c;10;2;Les hauts fonctionnaires;0.5
7c;11;-;Le niveau national;2.3
7c;11;1;Supprimer le CESE;1.9
7c;11;2;Le Conseil Constitutionnel;0.5
7c;12;-;Développer l'écoute des citoyens;2.2
7c;12;1;Plus de démocratie;0.6
7c;12;2;Mettre en place la proportionnelle;0.6
7c;13;-;Autres acteurs;1.0
7c;13;1;Les syndicats, les élus de syndicat;0.8
7c;14;-;Tous;1.9
7c;15;-;Autres contributions trop peu citées ou inclassables;18.6
7c;16;-;Non réponses;7.4
21;1;-;Développer le respect et la civilité;28.4
21;1;1;Développer, renforcer le respect, le respect d'autrui;24.1
21;1;2;Promouvoir l'égalité;1.7
21;1;3;Respecter les règles du vivre ensemble;1.4
21;1;4;Respecter les personnes âgées;1.1
21;1;5;Faire preuve de civilité dans les transports en commun;0.8
21;1;6;Respecter les personnes handicapées;0.7
21;1;7;Agir en fonction de l'intérêt général;0.6
21;2;-;Développer les valeurs de solidarité et d'entraide;13.4
21;2;1;La solidarité;4.9
21;2;2;L'entraide;4.1
21;2;3;L'engagement associatif;3.0
21;2;4;Le bénévolat;1.8
21;2;5;La fraternité;1.7
21;3;-;Encourager le civisme et le respect des devoirs du citoyen;6.9
21;3;1;Faire preuve de civisme, avoir un comportement civique;2.1
21;3;2;L'exemplarité de tous, en particulier les élus;1.1
21;3;3;Payer ses impôts;0.8
21;3;4;Respecter la loi;0.6
21;3;5;Respecter le code de la route;0.6
21;3;6;L'exemplarité et la proximité des élus;0.4
21;4;-;Respecter l'environnement;5.3
21;4;1;Respecter l'environnement;4.0
21;4;2;Gérer les déchets, développer la valorisation des déchets;1.6
21;5;-;Développer la formation et l'éducation;3.5
21;5;1;Valoriser l'éducation civique à l'école;3.2
21;6;-;Autres contributions;2.2
21;6;1;Valoriser, respecter, aider les familles;0.6
21;6;2;Ce n'est pas le rôle de l'Etat;0.5
21;7;-;Restaurer l'ordre public;1.9
21;7;1;Respecter la Justice;0.7
21;7;2;Garantir la sécurité de chacun;0.5
21;7;3;Respecter les forces de l'ordre;0.4
21;8;-;Modifier les règles électorales;0.4
21;9;-;Autres contributions trop peu citées ou inclassables;20.7
21;10;-;Non réponses;37.0
18;1;-;Réellement appliquer la loi;13.0
18;1;1;Appliquer la loi de 1905;10.8
18;1;2;La supériorité des lois de la République sur les dogmes religieux;1.1
18;1;3;Ne pas changer la loi de 1905;0.6
18;1;4;Le rôle de la Justice dans la protection de la laïcité;0.4
18;2;-;Insister sur les valeurs du vivre-ensemble;10.4
18;2;1;Le respect, la tolérance de tous;8.5
18;2;2;Le vivre-ensemble;0.9
18;2;3;La laïcité est un principe fondamental de la démocratie;0.6
18;3;-;Appliquer et apprendre la laïcité à l'école;7.6
18;3;1;Enseigner l'éducation civique;5.5
18;3;2;Enseigner dès l'école primaire la laïcité, la loi 1905 et l'instruction civique;0.7
18;3;3;Former à la laicité dans l'Education nationale;0.5
18;4;-;Interdire les signes religieux;6.9
18;4;1;Interdire les signes religieux dans l'espace public;6.1
18;5;-;Autres contributions;6.6
18;5;1;Renforcer le rôle de l'Etat dans l'application de la laicité;6.2
18;6;-;Affirmer la dimension privée et individuelle de la religion;5.3
18;6;1;Le respect de la liberté de culte;3.2
18;6;2;La religion est une affaire privée et doit rester dans la sphère privée;2.0
18;7;-;Réguler la place et l'influence de certaines religions;5.1
18;7;1;Traiter les religions sur un pied d'égalité;2.2
18;7;2;La religion musulmane pose problème;1.1
18;7;3;Réguler la place de la religion catholique;1.0
18;7;4;La pratique religieuse doit se tenir à l'écart de l'espace public;0.7
18;8;-;Réguler le financement des cultes;3.4
18;8;1;Supprimer, réduire les subventions ou assurer un meilleur contrôle des écoles privées/confessionnelles;1.2
18;8;2;Interdire le financement du culte par l'Etat;1.1
18;9;-;Garantir la neutralité des acteurs et des lieux publics;2.0
18;9;1;Pas de port de signes religieux dans l'administration;1.3
18;10;-;Contrôler l'influence des associations;1.7
18;10;1;La question de l'intervention étrangère;1.5
18;11;-;Mettre en place des sanctions;1.4
18;11;1;Fermer des lieux de culte formulant des propos contre la République;1.1
18;12;-;Contrôler et former les responsables religieux;1.4
18;12;1;Former le personnel religieux;1.2
18;13;-;Garantir la sécurité et l'ordre public;0.7
18;14;-;Mieux gérer l'immigration;0.7
18;14;1;Limiter voire arrêter totalement l'immigration;0.4
18;15;-;Appliquer la laïcité dans la médecine et les hôpitaux;0.5
18;16;-;Prendre en compte l'héritage culturel chrétien;0.3
18;17;-;Rien;0.5
18;18;-;Autres contributions trop peu citées ou inclassables;27.0
18;19;-;Non réponses;33.9
16a;1;-;Supprimer le CESE;14.4
16a;1;1;Il faut supprimer le CESE;14.4
16a;2;-;Supprimer le Sénat;13.7
16a;2;1;Il faut supprimer le Sénat;13.2
16a;3;-;Une meilleure représentativité des assemblées;4.8
16a;3;1;Les assemblées doivent représenter la société civile et en sont actuellement trop éloignées;2.7
16a;3;2;Il faut davantage de représentativité de ces assemblées;0.8
16a;3;3;Il faut intégrer de la proportionnelle dans les modes de scrutin;0.7
16a;3;4;Les assemblées doivent proposer des référendums;0.6
16a;4;-;Conserver / renforcer le rôle des assmeblées;3.2
16a;4;1;Il faut renforcer le rôle du Sénat;0.5
16a;4;2;Les assemblées doivent conserver leur rôle actuel;0.5
16a;4;3;Les assemblées doivent avoir plus de pouvoir;0.5
16a;5;-;La perception des élus;3.1
16a;5;1;Les sénateurs et députés doivent davantage aller sur le terrain;2.3
16a;5;2;Donner plus d'importance aux élus locaux;0.6
16a;6;-;Les liens des assemblées avec les collectivités territoriales;2.0
16a;6;1;Donner plus de pouvoir et d'autonomie aux régions;0.7
16a;6;2;Ne connait pas le rôle des CESER;0.5
16a;6;3;Les maires doivent avoir plus de pouvoir;0.4
16a;7;-;Les critiques adressées aux assemblées;2.2
16a;7;1;Le Sénat et le CESE sont de vraies maisons de retraite pour politiciens;0.6
16a;7;2;Le CESE est une dépense inutile;0.6
16a;7;3;Supprimer les comités Théodule;0.5
16a;7;4;Les assemblées doivent respecter les citoyens;0.5
16a;8;-;Les liens que doivent entretenir les assemblées avec les autres acteurs;1.6
16a;8;1;Davantage prendre en compte les associations;1.2
16a;8;2;Donner plus d'importance aux syndicats;0.5
16a;9;-;Le rôle des autres institutions;1.2
16a;9;1;Renforcer le rôle de la Cour des Comptes;0.9
16a;10;-;Le mode de fonctionnement des assemblées;0.8
16a;10;1;Davantage de transparence;0.5
16a;11;-;La perception de l'Assemblée nationale;0.4
16a;12;-;Aucun;0.5
16a;13;-;Autres contributions trop peu citées ou inclassables;29.6
16a;14;-;Non réponses;44.1
23;1;-;Réformer l'administration, la fonction publique;8.7
23;1;1;Améliorer le fonctionnement de l'administration;6.4
23;1;2;Améliorer le fonctionnement des pouvoirs publics;2.3
23;1;3;Revaloriser les services publics;1.5
23;2;-;Soutenir l'engagement associatif;4.1
23;2;1;Soutenir les associations financièrement et humainement;2.4
23;2;2;Valoriser le bénévolat;1.1
23;3;-;Récompenser l'engagement;3.1
23;3;1;Déduire les heures de bénévolat dans le compte de la retraite;2.0
23;3;2;Accorder des points de retraite aux citoyens engagés;0.5
23;4;-;Via les pouvoirs publics;2.8
23;4;1;Respecter les administrés;2.0
23;5;-;Via l'éducation;2.7
23;5;1;Utiliser l'école comme outil de valorisation de l'engagement citoyen;1.3
23;5;2;Éduquer et former à la citoyenneté;0.9
23;5;3;Renforcer l'enseignement de l'éducation civique;0.5
23;6;-;Développer le service civique/national/militaire;1.8
23;6;1;Développer le service civique;1.2
23;7;-;Renforcer le lien humain et social;0.7
23;8;-;Renforcer la démocratie directe;0.7
23;9;-;Autres contributions trop peu citées ou inclassables;25.6
23;10;-;Non réponses;56.0
31;1;-;Oui (sans précision);32.7
31;2;-;Non (sans précision);13.8
31;3;-;Mettre en place des quotas;7.1
31;3;1;Mettre en place des quotas;5.3
31;3;2;Réguler l'immigration en fonction des besoins économiques;0.9
31;3;3;Définir des quotas en fonction des métiers demandeurs en main d'oeuvre;0.8
31;3;4;Mettre en place une immigration choisie;0.7
31;4;-;Changer la politique migratoire française;5.8
31;4;1;Réguler l'immigration;4.5
31;4;2;Revoir ou supprimer le regroupement familial;0.5
31;5;-;Pourquoi pas (sans précision);2.6
31;6;-;L'accueil des migrants;2.2
31;6;1;S'assurer en priorité des capacités matérielles d'accueil;0.6
31;6;2;Accompagner les demandeurs d'asile et les former à la langue et à un métier;0.5
31;6;3;Impossible d'accueillir tout le monde;0.4
31;7;-;Consulter par référendum;0.7
31;7;1;Cette question doit être tranchée par un référendum;0.6
31;8;-;Autres contributions;0.6
31;8;1;Il faut d'abord se préoccuper du chômage;0.6
31;9;-;La question des réfugiés politiques;0.5
31;10;-;Le rôle de l'Europe;0.4
31;11;-;Autres contributions trop peu citées ou inclassables;15.1
31;12;-;Non réponses;35.4
4b$1;1;-;Il faut que les élus restent proches des réalités du terrain;42.4
4b$1;1;1;Le non-cumul éloigne trop les députés des réalités de terrain;41.9
4b$1;1;2;Le non-cumul éloigne trop les sénateurs des réalités de terrain;2.5
4b$1;2;-;Il faut limiter le cumul des avantages plutôt que le cumul des mandats;12.7
4b$1;2;1;Le refus du cumul des avantages plutôt que celui des fonctions;12.7
4b$1;3;-;Il faut rétablir la possibilité de cumuler les fonctions de Député et de Maire;7.0
4b$1;3;1;Le rétablissement du cumul entre Député et Maire;7.0
4b$1;4;-;Il faut limiter le cumul dans le temps plutôt que le cumul des mandats;0.5
4b$1;4;1;La limitation des mandats dans le temps est préférable au non-cumul des mandats;0.5
4b$1;5;-;Autres contributions trop peu citées ou inclassables;24.1
4b$1;6;-;Non réponses;13.9
26;1;-;Les citoyens doivent avoir le bon comportement;12.3
26;1;1;Chacun doit donner l'exemple;6.5
26;1;2;Respecter autrui, ses libertés;5.3
26;1;3;Faire preuve de solidarité, fraternité;0.6
26;2;-;L'éducation pour lutter contre les incivilités;10.3
26;2;1;Eduquer les enfants, c'est le rôle des parents;8.8
26;2;2;Enseigner les règles de civilité à l'école, c'est le rôle de l'Education nationale;2.2
26;3;-;Il faut dénoncer ces incivilités;3.7
26;3;1;Les dénoncer;3.7
26;4;-;Les institutions sont responsables du recul des incivilités;2.9
26;4;1;C'est le rôle de la police;1.2
26;4;2;C'est le rôle de la Justice;1.1
26;4;3;C'est le rôle de l'Etat;0.9
26;5;-;L'Etat doit inciter, sensibiliser les citoyens;1.3
26;5;1;Encourager l'exemplarité;0.4
26;6;-;L'entraide par les associations;0.8
26;6;1;Créer, s'engager ou adhérer à des associations;0.8
26;7;-;L'Etat doit responsabiliser les citoyens;0.4
26;8;-;L'Etat doit améliorer la sécurité;0.3
26;9;-;Surveiller les réseaux sociaux;0.2
26;10;-;Autres contributions;0.2
26;11;-;Autres contributions trop peu citées ou inclassables;26.6
26;12;-;Non réponses;48.0
30;1;-;Améliorer les conditions d'accueil;10.0
30;1;1;Favoriser le respect de la dignité humaine, du droit d'asile, de la convention internationale;3.6
30;1;2;Accueillir les réfugiés politiques, les personnes en danger dans leur pays d'origine;3.0
30;1;3;Accueillir les réfugiés climatiques;1.1
30;1;4;Améliorer les conditions d'accueil, offrir un accueil digne, optimiser la prise en charge;0.9
30;1;5;Etre solidaire des immigrés, abolir le délit de solidarité;0.9
30;1;6;Promouvoir l'égalité;0.5
30;2;-;Opposition à l'immigration;9.9
30;2;1;Prioriser l'attribution de logements pour les Français;1.9
30;2;2;La France ne peut pas accueillir toute la misère du monde;1.8
30;2;3;Le taux de chômage est trop élevé pour accueillir des immigrés;1.7
30;2;4;Mieux gérer, stabiliser le flux migratoire;1.2
30;2;5;La mauvaise gestion de l'immigration par l'Etat;0.7
30;2;6;S'occuper d'abord des sans abris;0.7
30;2;7;Stopper l'immigration massive;0.6
30;2;8;L'insécurité engendrée par l'immigration;0.6
30;2;9;Le coût de l'immigration sur nos impôts;0.5
30;2;10;Limiter le flux migratoire (trop d'immigration);0.5
30;2;11;L'immigration est un problème;0.4
30;3;-;Durcir les conditions d'accueil, de séjour, de régularisation;9.4
30;3;1;Supprimer, limiter le regroupement familial;2.8
30;3;2;Limiter, contrôler, conditionner les aides sociales (santé, retraite, etc);1.4
30;3;3;Supprimer le droit du sol;1.1
30;3;4;Lutter contre l'immigration clandestine, illégale;1.0
30;3;5;Ne pas laisser les associations dicter la politique migratoire;1.0
30;3;6;Durcir les conditions d'obtention de la nationalité française (fin du droit du sol, examen, preuve d'une volonté réelle d'être Français);0.9
30;3;7;Faire respecter les lois, les us et coutumes du pays d'accueil;0.9
30;3;8;Expulser les immigrés en situation irrégulière;0.6
30;3;9;Accueillir les personnes ayant une véritable volonté, la motivation de s'intégrer;0.5
30;4;-;Mettre en place des quotas;9.3
30;4;1;Mettre en place, respecter des quotas;5.3
30;4;2;Mettre en place une immigration choisie (main d'œuvre qualifiée dans certains domaines selon les besoins, etc.);4.8
30;5;-;Renforcer l'éducation et l'apprentissage de la langue française;3.8
30;5;1;Renforcer l'apprentissage de la langue française pour les migrants;2.0
30;5;2;L'accès à la formation pour les personnes issues de l'immigration;1.6
30;6;-;Agir à un niveau plus global;1.7
30;6;1;Gérer l'immigration au niveau européen (politique migratoire commune, cohérente, etc.);1.4
30;7;-;Autre contributions;1.0
30;7;1;Optimiser le coût généré par l'immigration, limiter les dépenses;0.4
30;8;-;Se préoccuper d'abord des problèmes des Français;0.3
30;9;-;Autres contributions trop peu citées ou inclassables;7.9
30;10;-;Non réponses;61.6
27;1;-;Les discriminations en lien avec le racisme;13.8
27;1;1;Le racisme;11.9
27;1;2;Les discriminations contre les personnes blanches;1.3
27;1;3;Les discriminations sur l'origine familiale;0.4
27;2;-;Les discriminations en lien avec le sexisme;5.9
27;2;1;Le sexisme;5.8
27;3;-;Les discriminations en lien avec l'orientation sexuelle;3.8
27;3;1;L'homophobie;3.3
27;4;-;Les discriminations envers les personnes handicapées;3.0
27;4;1;Les discriminations envers les personnes handicapées;3.0
27;5;-;Les conséquences de ces discriminations;2.3
27;5;1;Le manque de respect;2.1
27;6;-;Les discriminations en lien avec les personnes âgées;1.8
27;6;1;Les discriminations vis-à-vis des personnes âgées;1.1
27;6;2;Les discriminations vis-à-vis des retraités;0.8
27;7;-;Les discriminations en lien avec les services publics;1.0
27;8;-;Les incivilités associées aux discriminations;0.9
27;8;1;Les agressions verbales;0.5
27;9;-;Les discriminations dans l'accès aux transports en commun;0.9
27;9;1;Le manque de respect dans les transports en commun;0.5
27;10;-;Les discriminations en lien avec l'emploi;0.8
27;10;1;Les discriminations à l'embauche;0.5
27;11;-;Les discriminations en lien avec l'école, l'éducation;0.7
27;11;1;Les discriminations à l'école;0.5
27;12;-;Les discriminations pour l'accès au logement;0.7
27;12;1;Les discriminations dans l'accès au logement;0.7
27;13;-;Les discriminations en lien avec le statut social;0.6
27;14;-;Les discriminations en lien avec la police;0.5
27;15;-;Les discriminations en lien avec des mouvements ou dispositifs en France;0.4
27;16;-;Les discriminations sur l'état de santé;0.2
27;17;-;Les discriminations sur les réseaux sociaux;0.2
27;18;-;Aucune;1.3
27;19;-;Autres contributions trop peu citées ou inclassables;25.9
27;20;-;Non réponses;47.6
1;1;-;Les élus locaux;27.4
1;1;1;Les maires;23.6
1;1;2;Les élus locaux;3.5
1;1;3;La commune;1.0
1;1;4;Les élus qui sont au contact direct des citoyens;0.9
1;1;5;Le conseil départemental;0.5
1;1;6;Les intercommunalités;0.5
1;1;7;Le conseil régional, les conseillers régionaux;0.5
1;2;-;Contributions sur le manque de confiance;23.2
1;2;1;Confiance en personne;14.6
1;2;2;Moi-même;5.4
1;2;3;Confiance limitée envers les élus;4.3
1;2;4;Les partis politiques sont éloignés du peuple qu'ils représentent et inefficaces;1.4
1;2;5;Le Sénat n'est pas digne de confiance;1.2
1;3;-;Les élus;22.2
1;3;1;Les députés;14.0
1;3;2;Le Président de la République / Emmanuel Macron / Le Président;5.6
1;3;3;Les élus (sans précision);4.2
1;4;-;Les corps intermédiaires;8.7
1;4;1;Les associations;6.1
1;4;2;Les syndicats;4.0
1;4;3;Les corps intermédiaires;0.6
1;5;-;Pourquoi;4.9
1;5;1;Pour renforcer la démocratie;2.4
1;5;2;Pour davantage de justice sociale et démocratique;0.7
1;5;3;Pour respecter les libertés;0.6
1;5;4;Pour davantage de transparence;0.4
1;5;5;Pour protéger l'environnement;0.4
1;5;6;Pour la gestion des impôts;0.4
1;6;-;Les modalités du vote, des élections;3.8
1;6;1;Le suffrage universel;1.3
1;6;2;La proportionnelle;0.8
1;6;3;Confiance en la représentativité;0.8
1;6;4;Une représentativité plus forte garantirait la confiance;0.6
1;7;-;Les conditions de confiance;2.6
1;7;1;L'intérêt général doit passer devant l'intérêt particulier;1.7
1;7;2;Pour garantir le respect des règles et des institutions;1.0
1;8;-;Fait confiance sous réserve;1.6
1;8;1;L'Etat s'il s'améliore;0.9
1;8;2;Les institutions, sous réserve de fiabilité;0.5
1;9;-;La société civile;1.4
1;9;1;La société civile;0.7
1;9;2;Aider les familles, qui sont des cercles fermés de confiance;0.5
1;10;-;Les maires et les députés;1.3
1;10;1;Les maires et les députés;1.3
1;11;-;Les référendums;1.2
1;11;1;Les référendums;0.9
1;11;2;Les référendums d'initiative citoyenne;0.5
1;12;-;Autres contributions;0.6
1;12;1;Les gilets jaunes portent la confiance du peuple;0.6
1;13;-;Autres contributions trop peu citées ou inclassables;13.2
1;14;-;Non réponses;23.4
8;1;-;Rendre le vote obligatoire, sanctionner l'abstention;23.1
8;1;1;Rendre le vote obligatoire;20.2
8;1;2;Sanctionner financièrement l'abstention (amende, etc.);3.1
8;1;3;Inciter à voter via des mesures fiscales;1.3
8;1;4;Inciter à voter via les aides sociales;0.5
8;2;-;Prendre en compte le vote blanc;12.5
8;2;1;Prendre en compte le vote blanc;12.5
8;3;-;Améliorer le comportement des élus;6.6
8;3;1;Restaurer la confiance envers les élus par l'exemplarité, l'honnêteté, l'assiduité et la proximité;5.2
8;3;2;Rendre exemplaire l'Etat, les élus et les responsables publics;0.7
8;3;3;Renforcer la transparence des candidats;0.6
8;4;-;Autres contributions;6.3
8;4;1;Restaurer la confiance envers les élus, les institutions et le fonctionnement démocratique;3.5
8;4;2;Améliorer la représentativité des partis politiques;0.8
8;4;3;Améliorer la représentativité du système politique;0.6
8;5;-;Modifier les modes de scrutin, le corps électoral;6.2
8;5;1;Introduire la proportionnelle dans les scrutins;2.5
8;5;2;Elargir le droit de vote (aux plus jeunes, aux résidents étrangers pour les élections locales);1.3
8;5;3;Changer les modes de scrutin;0.7
8;5;4;Modifier les modalités de vote à l'élection présidentielle;0.7
8;5;5;Radier les électeurs en cas d'abstention répétée;0.6
8;6;-;Agir sur les campagnes électorales et le respect des promesses;5.8
8;6;1;Respecter les résultats des référendums (ex: TCE en 2005);2.8
8;6;2;Respecter le vote des citoyens;1.8
8;6;3;Respecter les promesses de campagne (et en faire moins);1.0
8;6;4;Respecter la liberté de ne pas voter;0.7
8;7;-;Renforcer l'esprit civique et citoyen;5.0
8;7;1;Renforcer l'éducation civique et la sensibilisation sur le vote dès le plus jeune âge;4.1
8;7;2;Faire de la pédagogie adressée à tous sur le vote;0.6
8;8;-;Faciliter le vote;3.2
8;8;1;Rendre possible le vote en ligne, le vote électronique;2.3
8;8;2;Faciliter l'accès aux bureaux de vote (ouverts sur plusieurs jours, en semaine, mobiles);0.6
8;9;-;Les perceptions de la participation;1.7
8;9;1;Le taux de participation trop faible;1.2
8;9;2;Le taux d'abstention trop élevé;0.5
8;10;-;Intégrer les citoyens dans les décisions, la démocratie participative;1.6
8;10;1;Développer l'engagement citoyen dans les associations;0.5
8;11;-;Commentaires sur les référendums;1.3
8;11;1;Instaurer le Référendum d'Initiative Citoyenne (RIC);1.2
8;12;-;Autres contributions trop peu citées ou inclassables;27.9
8;13;-;Non réponses;24.4
25;1;-;Les sanctions à appliquer;30.6
25;1;1;Sanctionner (sans précision);13.0
25;1;2;Renforcer les amendes et leur application ou les remplacer par des travaux d'intérêt général;6.7
25;1;3;Appliquer la loi;5.0
25;1;4;Imposer des travaux d'intérêt général;4.7
25;1;5;Rendre la Justice plus sévère et réactive;3.0
25;1;6;Faire respecter l'ordre public;3.0
25;1;7;Faire preuve de plus de fermeté vis-à-vis des fauteurs de troubles;0.8
25;1;8;Faire des rappels à la loi systématiques en cas d'invicilité;0.5
25;1;9;Appliquer des sanctions financières;0.5
25;2;-;Agir sur l'éducation;5.0
25;2;1;Renforcer l'éducation au civisme à l'école;3.4
25;2;2;Assurer des formations au civisme;0.9
25;2;3;Eduquer au civisme dès le plus jeune âge;0.8
25;3;-;Agir sur la cohésion, le vivre-ensemble;4.9
25;3;1;Montrer l'exemple;1.9
25;3;2;Assurer une bonne éducation au sein de la famille;0.8
25;3;3;Travailler avec les associations;0.7
25;3;4;Promouvoir le vivre ensemble;0.4
25;4;-;Renforcer l'exemplarité et l'action des pouvoirs publics;2.4
25;4;1;Renforcer l'action et la fermeté des pouvoirs publics;1.5
25;5;-;Renforcer la communication et la pédagogie des pouvoirs publics;1.6
25;5;1;Renforcer la pédagogie des pouvoirs publics;0.8
25;5;2;Réguler les réseaux sociaux;0.6
25;6;-;Autres contributions;1.2
25;7;-;Santionner les aides sociales;0.6
25;8;-;Agir sur les routes et les transports;0.5
25;9;-;Les valeurs;0.5
25;10;-;Autres contributions trop peu citées ou inclassables;27.5
25;11;-;Non réponses;36.1
20;1;-;Les solutions pour favoriser l'engagement;11.3
20;1;1;Le service civique;4.9
20;1;2;Instituer un service militaire obligatoire;3.7
20;1;3;Rendre le vote obligatoire;2.4
20;1;4;Les travaux d'intérêt général;1.0
20;2;-;Les acteurs à impliquer;11.0
20;2;1;Les associations;6.3
20;2;2;Les élus, par leur exemplarité;1.5
20;2;3;L'Etat;1.2
20;2;4;La Justice;0.8
20;2;5;Les collectivités locales;0.7
20;2;6;Les services publics;0.5
20;2;7;La fonction publique;0.5
20;2;8;Les syndicats;0.5
20;3;-;L'éducation des citoyens;8.9
20;3;1;Impliquer l'Education nationale;5.1
20;3;2;Le retour de l'éducation civique;2.4
20;3;3;Former les citoyens;1.3
20;3;4;Education au civisme dès le plus jeune âge;0.8
20;3;5;Sensibiliser à l'enjeu de l'environnement;0.6
20;3;6;A l'intérieur de la famille;0.6
20;4;-;Les valeurs à mettre en avant;8.1
20;4;1;Le respect;3.3
20;4;2;La citoyenneté;1.1
20;4;3;Le vivre ensemble;1.0
20;4;4;L'exemplarité de tous;0.9
20;4;5;La valorisation de la démocratie;0.8
20;4;6;La solidarité;0.7
20;4;7;L'égalité;0.5
20;4;8;La transparence;0.4
20;5;-;La participation des citoyens;4.9
20;5;1;Faire payer l'impôt à tous;1.4
20;5;2;Recourir aux référendums;1.3
20;5;3;Recourir au Référendum d'Initiative Citoyenne (RIC);1.1
20;5;4;Recourir à l'expression directe des citoyens;0.6
20;6;-;Valoriser les initiatives individuelles;2.9
20;6;1;Valoriser le bénévolat;2.2
20;6;2;Respecter les libertés de chacun;0.5
20;7;-;Les lieux et moments d'intervention des citoyens;1.6
20;7;1;Inciter à s'engager pour des personne handicapées ou hospitalisées;0.9
20;8;-;Les incitations pour faciliter l'implication des citoyens;0.7
20;9;-;Les autres moyens envisagés;0.5
20;9;1;Garantir la sécurité du citoyen;0.5
20;10;-;Autres contributions trop peu citées ou inclassables;29.0
20;11;-;Non réponses;37.5
29b;1;-;Les pistes de contreparties;42.9
29b;1;1;Réaliser des travaux d'intérêt général;22.6
29b;1;2;S'impliquer, faire du bénévolat dans les associations;13.1
29b;1;3;Suivre une formation;4.3
29b;1;4;Donner de son temps aux personnes âgées;4.2
29b;1;5;Donner de son temps à sa commune;2.9
29b;1;6;Payer des impôts (même symboliques);2.1
29b;1;7;Réaliser des travaux d'intérêt général dans les administrations;1.5
29b;1;8;Participer à l'entretien des logements sociaux mis à disposition;0.9
29b;1;9;Donner de son temps aux collectivités locales;0.9
29b;1;10;Faire un service civique;0.9
29b;1;11;Donner de son temps aux hôpitaux;0.7
29b;1;12;Donner de son temps pour permettre de maintenir le lien social avec autrui;0.7
29b;1;13;Participer à l'entretien des espaces verts;0.5
29b;1;14;Réaliser des heures de travail calculées sur la base du SMIC;0.5
29b;2;-;Les types d’allocataires concernés;7.6
29b;2;1;Demander une contrepartie aux bénéficiaires de l'allocation chômage;4.7
29b;2;2;Demander une contrepartie aux bénéficiaires des allocations familiales;2.9
29b;2;3;Demander une contrepartie aux bénéficiaires du RSA;0.6
29b;3;-;Le savoir-vivre comme contrepartie;6.0
29b;3;1;Respecter les lois, les règles de la République;4.5
29b;3;2;Adopter une attitude citoyenne;1.1
29b;4;-;Il faut réduire ou supprimer les allocations pour certaines populations;5.0
29b;4;1;Réduire ou supprimer les allocations aux familles en cas d'abstentéisme à l'école;2.4
29b;4;2;Réduire ou supprimer les allocations aux familles en cas de délinquance;1.8
29b;4;3;Réduire ou supprimer les allocations en cas de condamnation judiciaire;0.7
29b;4;4;Contrôler les dépenses des allocataires;0.4
29b;5;-;Il faut exempter de contreparties certaines populations;2.1
29b;5;1;Exempter de contreparties les personnes en situation de handicap;1.4
29b;5;2;Exempter de contreparties les personnes atteintes de problèmes de santé;0.7
29b;6;-;Autres contributions;0.6
29b;7;-;Il faut instaurer des conditions pour pouvoir accéder aux allocations;0.2
29b;8;-;Autres contributions trop peu citées ou inclassables;25.1
29b;9;-;Non réponses;21.5
19;1;-;Par l'enseignement;30.9
19;1;1;C'est le rôle de l'école / l'Education nationale;17.5
19;1;2;Enseigner le respect;9.2
19;1;3;Réhabiliter l'éducation / instruction civique;8.8
19;1;4;Dispenser des formations pour les jeunes / les adultes;2.5
19;1;5;Enseigner ce qu'est la citoyenneté;1.7
19;1;6;Enseigner le vivre ensemble;0.9
19;2;-;Par le respect des lois et des valeurs;9.3
19;2;1;Faire appliquer les lois de la République;3.1
19;2;2;Enseigner et faire respecter la valeur de liberté;2.6
19;2;3;Enseigner et faire respecter l'égalité;2.4
19;2;4;Enseigner et faire respecter les principes et valeurs de la République;1.9
19;2;5;Enseigner et faire respecter la fraternité;1.6
19;2;6;Enseigner et faire respecter la démocratie;0.9
19;3;-;Par les différents acteurs;8.6
19;3;1;C'est le rôle l'éducation familiale;3.7
19;3;2;Par l'exemplarité des élus et des élites;2.4
19;3;3;Les associations doivent aider et respecter ces valeurs;1.2
19;4;-;Par des sanctions;4.2
19;4;1;Avoir une Justice plus sévère, sanctionnant davantage;1.8
19;4;2;L'Etat doit faire preuve de plus de fermeté, sanctionner ceux qui ne respectent pas ces valeurs;1.2
19;4;3;Pénaliser les infractions et incivilités par des amendes;0.6
19;5;-;Par le service civique / national / militaire;2.7
19;5;1;Développer le service civique / service national;1.9
19;5;2;Restaurer le service militaire;0.9
19;6;-;Par la communication;1.7
19;6;1;Faire de la pédagogie;0.9
19;6;2;Contrôler les messages de haine sur les réseaux sociaux;0.6
19;7;-;Par le respect des devoirs;1.1
19;7;1;La nationalité française implique des devoirs / se mérite;0.7
19;8;-;Autres contributions;1.0
19;9;-;Par une meilleure gestion de l'immigration;0.4
19;9;1;Enseigner les valeurs aux immigrés;0.4
19;10;-;Par la mise en place de dispositifs participatifs;0.3
19;11;-;Autres contributions trop peu citées ou inclassables;23.8
19;12;-;Non réponses;35.5
3;1;-;Renforcer l'exemplarité des élus et des hauts fonctionnaires;30.0
3;1;1;Renforcer l'exemplarité des élus;25.5
3;1;2;Respecter les promesses électorales;3.6
3;1;3;Retrouver la dignité des débats à l'Assemblée nationale;2.1
3;1;4;Radier et rendre inéligibles les fonctionnaires condamnés;1.1
3;1;5;Pas de favoritisme pour les familles des responsable publics;0.5
3;2;-;Modifier les règles électorales et le mode de représentation;16.5
3;2;1;Réduire le nombre de députés;8.6
3;2;2;Passer à une démocratie participative;3.0
3;2;3;Introduire une dose de proportionnelle dans les scrutins;2.5
3;2;4;Comptabiliser le vote blanc;1.3
3;2;5;Améliorer la représentation de tous les partis politiques;1.2
3;2;6;Rendre le vote obligatoire;0.9
3;2;7;Améliorer la représentativité des élus à l'issue des scrutins;0.9
3;2;8;Modifier l'élection présidentielle;0.5
3;2;9;Elire l'Assemblée nationale à la proportionnelle;0.5
3;3;-;Ecouter les citoyens et leurs préoccupations;8.3
3;3;1;Recourir plus fréquemment au référendum à tous les échelons territoriaux;4.2
3;3;2;Instaurer le Référendum d'Initiative Citoyenne (RIC);2.1
3;3;3;Mieux informer sur les réunions publiques;1.1
3;3;4;Favoriser la participation de la société civile dans le début public;0.6
3;4;-;Renforcer la transparence de la vie publique;6.5
3;4;1;Renforcer la transparence de la vie publique;5.6
3;4;2;Contrôler l'utilisation de l'argent public dans une optique de transparence;1.1
3;5;-;Réduire les revenus et les avantages des élus et fonctionnaires;4.5
3;5;1;Aligner les impôts des élus sur ceux des travailleurs du privé;1.3
3;5;2;Limiter le cumul des mandats;1.3
3;5;3;Supprimer les avantages des élus sur le logement;0.6
3;5;4;Réduire les rémunérations et les avantages dans la fonction publique;0.5
3;5;5;Indexer les salaires des élus sur le SMIC;0.5
3;6;-;Réformer les institutions et leur fonctionnement;3.7
3;6;1;Transformer le Sénat;2.0
3;6;2;Réduire le poids des services de l'Etat;1.4
3;7;-;Autres contributions;2.4
3;7;1;Faire passer l'intérêt général avant les intérêts personnels;1.3
3;7;2;Diminuer l'influence de l'administration;0.7
3;8;-;Renforcer le civisme et la citoyenneté des Français par l'éducation;2.0
3;8;1;Renforcer l'éducation civique à l'école;1.1
3;8;2;Former les Français au civisme;0.8
3;9;-;Réformer les institutions au niveau local;2.1
3;9;1;Réduire le nombre d'élus locaux;0.7
3;9;2;Supprimer les régions;0.5
3;9;3;Mieux informer sur l'action des communautés de communes;0.5
3;9;4;Plus de participation citoyenne dans les communes;0.5
3;10;-;Renforcer le rôle des corps intermédiaires;1.6
3;10;1;Coopérer avec les associations;1.6
3;11;-;Diminuer le rôle des corps intermédiaires;0.8
3;11;1;Supprimer les syndicats;0.7
3;12;-;Autres contributions trop peu citées ou inclassables;29.0
3;13;-;Non réponses;22.9
15;1;-;Rendre transparentes les dépenses;19.7
15;1;1;Mettre à disposition des citoyens le détail des dépenses publiques;11.4
15;1;2;Plus de transparence;4.1
15;1;3;Contrôler et informer sur l'utilisation des impôts;3.7
15;1;4;Informer et échanger dans les communes;1.8
15;1;5;Respect des promesses, des avis citoyens et administratifs;0.7
15;1;6;Faire de la pédagogie sur les dépenses et la prise de décision;0.5
15;2;-;Mettre en place des référendums;11.8
15;2;1;Mettre en place des référendums;8.7
15;2;2;Créer le Référendum d'Initiative Citoyenne (RIC);2.5
15;2;3;Créer le Référendum d'Initiative Populaire (RIP);0.8
15;3;-;Les acteurs légitimes pour contrôler la dépense publique;8.3
15;3;1;Renforcer la Cour des Comptes;4.5
15;3;2;Renforcer le contrôle administratif;1.3
15;3;3;Contrôle par des associations de citoyens;1.2
15;3;4;Impliquer les citoyens au niveau des collectivités territoriales;0.5
15;4;-;Les domaines de dépenses à contrôler;7.9
15;4;1;Contrôler les dépenses de l'Etat;2.9
15;4;2;Contrôler le rôle et le comportement des élus;2.0
15;4;3;Contrôler l'administration;0.7
15;4;4;Contrôler le financement des services publics;0.6
15;4;5;Contrôler les collectivités locales;0.5
15;4;6;Contrôler les députés;0.5
15;4;7;Contrôler et renforcer la transparence dans les régions;0.5
15;5;-;Développer la démocratie participative;3.8
15;5;1;Mettre en place des budgets participatifs;0.8
15;5;2;Consulter les citoyens par la déclaration d'impôts;0.6
15;5;3;Informer et échanger dans des réunions publiques;0.6
15;5;4;Organiser des consultations citoyennes;0.5
15;5;5;Informer et décider dans des assemblées citoyennes;0.4
15;6;-;Utiliser les consultations en ligne;1.6
15;6;1;Consulter les citoyens en ligne;0.5
15;6;2;Consulter les citoyens par vote en ligne;0.5
15;7;-;Les solutions politiques;1.2
15;7;1;Respecter les principes démocratiques;0.6
15;8;-;Les domaines principaux sur lesquels les citoyens doivent être consultés;1.1
15;8;1;Les dépenses de santé;0.7
15;9;-;Autres contributions;0.9
15;10;-;Autres contributions trop peu citées ou inclassables;28.6
15;11;-;Non réponses;32.6
13b;1;-;Faciliter les conditions de déclenchement;20.4
13b;1;1;En abaissant les seuils de déclenchement;14.4
13b;1;2;En permettant au corps électoral de prendre cette initiative;4.1
13b;1;3;En abaissant le nombre de parlementaires nécessaires;1.5
13b;1;4;En permettant aux associations de prendre cette initiative;0.8
13b;2;-;Les types de référendums liés;6.7
13b;2;1;Y associer un référendum d'intiative citoyenne (RIC);5.8
13b;2;2;Il faut un référendum d'initiative populaire et non pas partagée;0.6
13b;3;-;Les sujets abordés;2.5
13b;3;1;Le référendum ne doit pas permettre de voter sur la peine de mort;0.8
13b;3;2;Le référendum doit servir à aborder les sujets importants;0.7
13b;4;-;L'implication des institutions;1.5
13b;4;1;En mettant en place un contrôle par le Conseil Constitutionnel;1.0
13b;5;-;Les moyens à mettre en place;1.3
13b;6;-;L'impact sur la démocratie;0.2
13b;7;-;Autres contributions trop peu citées ou inclassables;22.7
13b;8;-;Non réponses;46.1
32;1;-;Agir sur la législation;5.5
32;1;1;Supprimer le regroupement familial;2.3
32;1;2;Instaurer une politique européenne commune;0.9
32;1;3;Supprimer le droit du sol;0.9
32;1;4;Durcir l'accès à la nationalité française;0.6
32;1;5;Lutter contre les personnes en situation irrégulière;0.5
32;2;-;Agir dans les pays d'origine;5.2
32;2;1;Lutter contre le changement climatique;2.2
32;2;2;Aider les pays d'origine à se développer économiquement;1.3
32;2;3;Eviter une fuite de la main d'oeuvre dans les pays d'origine;0.6
32;2;4;Permettre aux migrants de vivre en sécurité dans leur pays;0.4
32;3;-;Mettre en place des quotas / objectifs;4.0
32;3;1;Instaurer des quotas;2.6
32;3;2;Mettre en place une immigration choisie;0.8
32;4;-;Améliorer les moyens d'intégration;3.7
32;4;1;Assurer une meilleure formation des migrants;1.7
32;4;2;Faciliter pour les migrants l'accès au logement;1.2
32;4;3;Privilégier un apprentissage de la langue rigoureux;1.0
32;5;-;Agir sur les associations;1.4
32;5;1;Augmenter l'aide aux associations;1.4
32;6;-;Les acteurs qui doivent agir;1.3
32;6;1;L'ONU doit intervenir;0.6
32;7;-;Favoriser des comportements solidaires;1.1
32;7;1;En faisant preuve de plus de solidarité;0.7
32;8;-;Agir sur les aides et prestations sociales;0.6
32;9;-;Opposition à l'immigration;0.6
32;9;1;La France ne peut pas accueillir toute la misère du monde;0.5
32;10;-;Accueillir décemment les migrants;0.4
32;11;-;Autres contributions trop peu citées ou inclassables;4.0
32;12;-;Non réponses;77.8
24;1;-;Les incivilités du quotidien;20.6
24;1;1;Le manque de respect;16.9
24;1;2;L'impolitesse, le manque de courtoisie, de civisme, d'éducation;3.6
24;1;3;Les entraves à la liberté des autres;0.8
24;1;4;Les incivilités que l'on rencontre en ville, dans les lieux publics (pollution, sécurité...);0.5
24;2;-;La pollution, la propreté et l'environnement;14.7
24;2;1;Les déchets sur la voie publique, jetés n'importe où;6.0
24;2;2;La pollution sonore (nuisances, tapages nocturnes, musique, etc.);5.0
24;2;3;Les déjections canines dans les rues;2.9
24;2;4;Les actes qui conduisent à la dégradation de notre environnement;1.9
24;2;5;Les décharges sauvages;1.4
24;2;6;La pollution;1.1
24;2;7;Les mégots de cigarettes dans la rue;0.5
24;3;-;La délinquance;11.1
24;3;1;La dégradation des biens, les casseurs;9.0
24;3;2;L'insécurité, le sentiment d'insécurité;0.8
24;3;3;L'existence de zones de non-droit;0.5
24;4;-;Les incivilités routières et dans les transports;8.8
24;4;1;Les incivilités routières (feu rouge grillé, excès de vitesse, téléphone au volant ...);4.9
24;4;2;Les incivilités dans les transports en commun;4.1
24;5;-;Renforcer l'éducation;8.2
24;5;1;Eduquer au respect des autres, des règles;4.3
24;5;2;Renforcer l'éducation civique en classe pour limiter les incivilités à l'école;3.0
24;5;3;Eduquer, montrer l'exemple;0.8
24;5;4;Responsabiliser et soutenir les familles (accompagnement à l'éducation, moins d'allocations, plus;0.7
24;5;5;Eduquer dès le plus jeune âge;0.5
24;6;-;Le harcèlement et la discrimination;5.2
24;6;1;Le racisme;2.9
24;6;2;Les incivilités à l'égard des plus fragiles (personnes agées, personnes en situation de handicap);1.6
24;6;3;Le sexisme;1.2
24;6;4;L'homophobie;0.8
24;7;-;L'application de sanctions ou de mesures dissuasives;4.1
24;7;1;Systématiser les amendes;2.9
24;7;2;Mettre en place une politique répressive de travaux d'intérêt général;1.6
24;8;-;Les agressions physiques et verbales;3.9
24;8;1;Les agressions et violences verbales;2.6
24;8;2;La violence physique;1.4
24;9;-;Les autres formes d'incivilités;3.9
24;9;1;Les violences émanant des réseaux sociaux;1.0
24;9;2;Les violences émanant des représentants des ordres institutionnels (police, Justice, Etat ...);0.8
24;9;3;La fraude, l'évasion fiscale;0.8
24;9;4;Le manque d'équité en termes d'impôt (désengagement de ceux qui ne paient pas, les uns paient pour les;0.6
24;9;5;Les incivilités émanant des gilets jaunes;0.5
24;10;-;Autres contributions;3.4
24;10;1;Avoir une Justice plus répressive, plus égalitaire, plus efficace;1.8
24;10;2;Etendre la présence policière tout en controlant son action (limiter les excès);1.4
24;11;-;Les solutions pour favoriser le vivre-ensemble;1.9
24;11;1;Faire appliquer les lois;0.7
24;11;2;Promouvoir le vivre-ensemble;0.6
24;12;-;Autres contributions trop peu citées ou inclassables;17.5
24;13;-;Non réponses;35.3
22;1;-;Par l'éducation, la pédagogie;17.3
22;1;1;A travers l'école, c'est le rôle de l'Education nationale;10.5
22;1;2;A travers des formations d'éducation civique;7.3
22;1;3;Sensibiliser les familles sur l'éducation des enfants;2.0
22;1;4;Sensibiliser dès le plus jeune âge, éduquer les enfants;1.9
22;2;-;Les engagements concrets;10.5
22;2;1;Aider davantage les associations, favoriser l'engagement associatif;4.5
22;2;2;S'engager à travers le service civique;2.5
22;2;3;Rétablir le service militaire;1.6
22;2;4;Promouvoir le bénévolat;0.9
22;2;5;Payer ses impôts;0.7
22;2;6;S'engager dans la protection de l'environnement;0.7
22;2;7;S'occuper des personnes âgées;0.6
22;3;-;Par le respect;5.0
22;3;1;Par le respect des autres;3.8
22;3;2;Par le respect de la Justice;0.9
22;3;3;Par le respect des forces de l'ordre;0.5
22;4;-;Le vivre-ensemble;2.7
22;4;1;Favoriser le vivre-ensemble;1.0
22;4;2;Ne pas jeter les déchets n'importe où;0.7
22;4;3;Promouvoir la solidarité;0.6
22;4;4;Promouvoir la citoyenneté;0.5
22;5;-;L'exemplarité;2.7
22;5;1;Montrer l'exemple, avoir un comportement exemplaire;2.2
22;5;2;Agir en fonction de l'intérêt général;0.5
22;6;-;Par la sanction;2.3
22;6;1;Sanctionner par les amendes;0.9
22;6;2;Sanctionner davantage par les travaux d'intérêt général;0.7
22;7;-;Les acteurs;1.9
22;7;1;Par le biais des élus;0.7
22;8;-;Autres contributions;0.9
22;8;1;Contrôler, assurer un suivi des réseaux sociaux;0.6
22;9;-;Rappeler les valeurs;0.8
22;9;1;La liberté;0.5
22;10;-;Par la vie politique;0.6
22;11;-;Par des incitations;0.4
22;12;-;Autres contributions trop peu citées ou inclassables;23.6
22;13;-;Non réponses;45.6
28;1;-;Renforcer l'éducation et la pédagogie;15.4
28;1;1;L'éducation (sans précision);8.4
28;1;2;L'école, l'éducation civique à l'école;5.5
28;1;3;Sensibiliser dès le plus jeune âge, éduquer les enfants;1.6
28;1;4;Investir dans l'éducation, l'accès à la formation;1.0
28;1;5;Responsabiliser, impliquer les familles;0.9
28;1;6;Eduquer à l'usage des réseaux sociaux;0.6
28;1;7;S'appuyer sur l'Education nationale;0.5
28;2;-;Enseigner, promouvoir des valeurs;6.7
28;2;1;Enseigner le respect de l'autre;3.3
28;2;2;Garantir l'égalité de tous;1.8
28;2;3;Faire preuve de plus de solidarité;1.3
28;2;4;Plus de liberté, de respect de la liberté;0.6
28;3;-;A l'aide des contrôles et des sanctions;3.8
28;3;1;Appliquer une Justice équitable et ferme;1.1
28;3;2;Être plus rigoureux dans l'application des lois portant sur la discrimination;0.9
28;3;3;Trouver un équilibre entre la sensibilisation contre le racisme et la répression des actes racistes;0.7
28;3;4;Imposer des amendes en cas de discrimination;0.5
28;4;-;Définir des politiques publiques pour lutter contre les discriminations;3.6
28;4;1;Responsabiliser davantage les entreprises dans la lutte contre la discrimination (à l'embauche, égalité salariale);0.7
28;4;2;C'est la responsabilité de l'Etat, des pouvoirs publics;0.7
28;4;3;Permettre un accès au logement plus juste et équitable;0.7
28;4;4;Encourager la discrimination positive;0.7
28;4;5;Garantir plus d'équité en matière d'imposition (moins d'impôts, tous imposables ...);0.5
28;5;-;Développer le vivre-ensemble;2.4
28;5;1;Apprendre le vivre-ensemble;0.9
28;5;2;Favoriser la mixité sociale;0.8
28;5;3;Faire en sorte qu'il y ait plus d'égalité, d'équité et de justice sociale;0.4
28;6;-;Faire preuve d'exemplarité;2.4
28;6;1;Encourager et aider les associations qui agissent sur le terrain;1.3
28;6;2;Exemplarité politique, citoyenne et parentale;0.8
28;7;-;Renforcer la démocratie;1.3
28;7;1;Encourager le service civique/service national;0.7
28;8;-;Protéger les personnes vulnérables;1.2
28;8;1;Mettre en place davantage de mesures en faveur des handicapés (cadre légal, accès à l'emploi, au logement);0.7
28;8;2;Plus d'équité à l'égard des retraités (revalorisation des retraites, baisse des impôts, place dans la société ...);0.6
28;9;-;Autres contributions;0.8
28;9;1;Contrôler l'immigration, le communautarisme;0.8
28;10;-;Autres contributions trop peu citées ou inclassables;25.5
28;11;-;Non réponses;47.8
10b;1;-;En comptabilisant le vote blanc;50.2
10b;1;1;En reconnaissant le vote blanc;37.8
10b;1;2;En comptabilisant le vote blanc comme un suffrage exprimé;16.7
10b;1;3;En prenant en compte le vote blanc dans l'établissement de la majorité absolue;1.7
10b;1;4;En comptabilisant le vote blanc comme un parti politique;0.7
10b;1;5;En comptabilisant le vote blanc comme un vote normal;0.5
10b;2;-;En l'associant à d'autres modifications de l'élection;5.4
10b;2;1;En l'associant à l'obligation de voter;2.4
10b;2;2;En introduisant un scrutin proportionnel;1.5
10b;2;3;En assurant un scrutin représentatif;0.7
10b;2;4;En créant / matérialisant un bulletin blanc;0.6
10b;3;-;En invalidant le scrutin en fonction du vote blanc;4.0
10b;3;1;En invalidant le scrutin en fonction du vote blanc;1.3
10b;3;2;En invalidant le scrutin si le vote blanc arrive en tête;1.3
10b;3;3;En invalidant le scrutin si le vote blanc détient la majorité;1.2
10b;4;-;Autres contributions trop peu citées ou inclassables;27.6
10b;5;-;Non réponses;20.7
11;1;-;Mettre en place des référendums;27.8
11;1;1;Le référendum;21.0
11;1;2;Le Référendum d'Initiative Citoyenne (RIC);7.5
11;1;3;Le référendum d'initiative populaire (RIP);0.9
11;1;4;Les référendums locaux;0.5
11;2;-;Repenser le rôle des élus et des institutions;10.4
11;2;1;Que les députés soient plus à l'écoute et plus proches des citoyens;3.5
11;2;2;Plus d'obligations et de disponibilité des élus;3.1
11;2;3;Repenser le rôle, le fonctionnement et la position de l'Etat;1.8
11;2;4;Repenser le rôle du Sénat;1.5
11;2;5;Revoir le fonctionnement de l'Assemblée nationale;1.3
11;2;6;Repenser le rôle du CESE;0.8
11;3;-;Mobiliser l'échelon local;7.1
11;3;1;S'appuyer davantage sur les mairies;5.2
11;3;2;S'appuyer davantage sur les élus locaux;0.7
11;3;3;S'appuyer davantage sur les régions;0.6
11;3;4;S'appuyer davantage sur les intercommunalités;0.5
11;4;-;Développer la participation citoyenne;6.1
11;4;1;Développer la démocratie participative;2.2
11;4;2;Promouvoir les débats publics;1.1
11;4;3;Mettre en place des assemblées citoyennes;0.9
11;4;4;Promouvoir les réunions publiques;0.9
11;4;5;Le grand débat national;0.6
11;4;6;Mettre en place des budgets participatifs;0.5
11;4;7;Davantage de démocratie directe;0.4
11;5;-;Faire évoluer le système électoral et les élections;5.7
11;5;1;Rendre le vote obligatoire;0.9
11;5;2;Améliorer la représentatitivité des partis politiques;0.6
11;5;3;Davantage de proportionnelle;0.6
11;5;4;Désigner des citoyens tirés au sort sur les listes électorales pour participer à des assemblées;0.5
11;5;5;Revoir les conditions de mise en place de l'élection présidentielle;0.5
11;5;6;Prendre en compte les votes blancs;0.4
11;6;-;Préserver la démocratie;5.5
11;6;1;La démocratie est un bien précieux;3.2
11;6;2;Respecter les fondamentaux de notre démocratie (parité, séparation des pouvoirs, libertés, droits et devoirs ...);1.6
11;6;3;Renforcer la transparence;0.6
11;6;4;Maintenir la démocratie représentative;0.5
11;7;-;Les sujets sur lesquels consulter les citoyens;4.3
11;7;1;Les impôts;1.0
11;7;2;Les retraites;0.7
11;7;3;Les questions environnementales;0.7
11;7;4;L'immigration;0.6
11;7;5;Les questions de santé;0.5
11;7;6;Les questions de sécurité;0.4
11;8;-;Mieux sensibiliser et informer;4.0
11;8;1;Promouvoir l'éducation citoyenne, notamment à l'école;1.5
11;8;2;Faire plus de pédagogie sur les politiques publiques;0.8
11;8;3;Rendre plus accessibles les projets de loi;0.6
11;8;4;Mieux informer sur les dépenses publiques;0.6
11;8;5;Mieux informer par les réseaux sociaux;0.5
11;9;-;Mobiliser les corps intermédiaires et la société civile;3.9
11;9;1;Aider les associations;2.5
11;9;2;Accroître la place des syndicats (présence en assemblée, plus représentatifs ...);0.9
11;9;3;Ecouter les revendications des gilets jaunes;0.5
11;9;4;Mieux prendre en compte les corps intermédiaires;0.4
11;10;-;Consulter les citoyens sur des sujets précis;3.7
11;10;1;Consulter davantage sur les grands sujets de société;1.4
11;10;2;Les consultations citoyennes;0.5
11;11;-;S'appuyer sur les nouvelles technologies;0.5
11;12;-;Autres contributions trop peu citées ou inclassables;25.2
11;13;-;Non réponses;26.1
4b$0;1;-;Ils ne peuvent pas tout faire;20.8
4b$0;2;-;Les conditions du non-cumul des mandats;9.8
4b$0;2;1;Refuser le cumul des avantages plutôt que celui des fonctions;9.0
4b$0;2;2;Limiter les mandats dans le temps;0.8
4b$0;3;-;Il est nécessaire de se consacrer à plein temps à son mandat;4.6
4b$0;3;1;Les députés et sénateurs doivent se consacrer entièrement à leur mandat;2.5
4b$0;3;2;Un mandat ne peut être exercé à temps partiel;1.4
4b$0;3;3;Il y a trop d'absentéisme à l'Assemblée nationale;0.9
4b$0;4;-;Le non-cumul des mandats favorise la représentativité des élus;3.5
4b$0;4;1;Le non-cumul permet de renouveler la classe politique;1.2
4b$0;4;2;Le non-cumul permet une meilleure démocratie;1.2
4b$0;4;3;Le non-cumul permet d'assurer une meilleure représentativité;0.5
4b$0;5;-;Le non-cumul favorise l'intérêt général;2.9
4b$0;5;1;Le non-cumul permet d'éviter les conflits d'intérêts;1.5
4b$0;5;2;Le non-cumul permet d'éviter la concentration des pouvoirs;0.8
4b$0;5;3;Le non-cumul favorise l'intérêt général;0.5
4b$0;6;-;L'importance de garder des relations de proximité;2.2
4b$0;6;1;Le non-cumul ne doit pas être étendu aux élus locaux;1.2
4b$0;6;2;Le non-cumul doit être étendu aux maires des grandes villes et pas des petites communes;0.8
4b$0;7;-;Autres contributions;0.9
4b$0;7;1;Le Sénat ne sert à rien, il faut supprimer le Sénat;0.9
4b$0;8;-;Autres contributions trop peu citées ou inclassables;25.5
4b$0;9;-;Non réponses;34.3
33;1;-;L'éducation;20.0
33;1;1;Développer, aider à l'apprentissage de la langue française, la maitrise de la langue;12.6
33;1;2;Favoriser l'intégration par l'école;6.4
33;1;3;Eduquer au civisme, à la citoyenneté française;2.5
33;1;4;Etendre et contrôler (examens) les domaines relatifs aux apprentissages obligatoires (langues, citoyenneté, économie, valeurs, politique ...);0.6
33;2;-;L'emploi et le travail;19.7
33;2;1;Intégrer par le travail;14.3
33;2;2;Intégrer par la formation professionnelle;6.7
33;3;-;La citoyenneté, l'apprentissage de la République;13.7
33;3;1;Respecter les fondamentaux de la République et de la démocratie, le respect mutuel;6.1
33;3;2;Appuyer les actions des associations d'aide;2.4
33;3;3;Intégrer également la famille des immigrés;1.9
33;3;4;"Apprendre les valeurs fondamentales ""liberté, égalité, fraternité""";1.7
33;3;5;Promouvoir le vivre ensemble, la mixité sociale (déconstruire le communautarisme, laicité ...);1.3
33;3;6;S'assimiler, s'adapater à la société française (codes, règles de vie, tenues ...);1.2
33;3;7;Assimiler les droits et devoirs des citoyens français;0.6
33;3;8;Avoir une meilleure connaissance et assimilation de l'histoire de France;0.5
33;4;-;Modifier le cadre légal (quotas, davantage de contrôle, de contreparties, de conditions);7.2
33;4;1;Arrêter, limiter l'immigration et le regroupement familial;2.2
33;4;2;Renforcer les règles d'accès à la nationalité française (service militaire, niveau de langues, renoncement de la double nationalité ...);1.3
33;4;3;Instaurer des règles de contrôle, d'obtention du visa dans le pays d'origine (niveau de langue, familles, conditions de retour...);1.1
33;4;4;Instaurer des règles de contrôle et d'intégration dans le pays d'accueil (respect des valeurs, de la culture...);1.0
33;4;5;Instaurer l'immigration choisie (diplômes, quotas);0.8
33;4;6;Revoir les conditions d'accès aux aides sociales (contre-partie, responsabilisation ...);0.6
33;4;7;Mettre en place une période probatoire d'intégration;0.5
33;4;8;Reconditionner les règles du regroupement familial (niveau de Français des familles, conditions financières ...);0.5
33;5;-;La lutte contre les discriminations;4.5
33;5;1;Favoriser l'accès au logement;4.1
33;5;2;Favoriser l'accès à la santé, aux soins;0.4
33;6;-;Autres contributions;1.5
33;6;1;Renforcer le rôle et la place de l'administration et de l'Etat;0.7
33;7;-;Le service civique, national ou militaire;1.0
33;7;1;Mettre en place un service civique pour les nouveaux arrivants;0.5
33;8;-;Les droits et les devoirs;0.8
33;9;-;Autres contributions trop peu citées ou inclassables;21.1
33;10;-;Non réponses;37.1
