no. question;pos. question;texte question;nb contrib;sous-questions;pos. question parente;value
11;8;Y a-t-il d'autres points sur les impôts et les dépenses sur lesquels vous  souhaiteriez vous exprimer ?;186711;-;;
8;6;Quels sont les domaines prioritaires où notre protection sociale doit être  renforcée ?;186711;-;;
4;3;Quels sont selon vous les impôts qu'il faut baisser en priorité ? ;186711;-;;
1;1;Quelles sont toutes les choses qui pourraient être faites pour améliorer  l'information des citoyens sur l'utilisation des impôts ?;186711;-;;
2;2;Que faudrait-il faire pour rendre la fiscalité plus juste et plus efficace ? ;186711;-;;
9;7;Pour quelle(s) politique(s) publique(s) ou pour quels domaines d'action  publique, seriez-vous prêts à payer plus d'impôts ?;186711;-;;
7;4;"Afin de financer les dépenses sociales, faut-il selon vous...";186711;7;4;-
7b;5;"S'il faut selon vous revoir les conditions d'attribution de certaines aides sociales, lesquelles doivent être concernées ?";96418;7;4;"Revoir les conditions d'attribution de certaines aides sociales"