no. question;pos. question;texte question;nb contrib;pos. question parente;value;sous-questions
1;1;Que pensez-vous de l'organisation de l'Etat et des administrations en France ?  De quelle manière cette organisation devrait-elle évoluer ?;111953;;;-
5b;3;Si oui, lesquelles ? ;38905;2;Oui; que l'Etat doit aujourd'hui transférer de nouvelles missions aux collectivités territoriales
6b;5;Si non, quels types de services publics vous manquent dans votre territoire et  qu'il est nécessaire de renforcer ?;27313;4;Non; qu’ils n’estiment pas avoir accès aux services publics dont ils ont besoin
9;6;Quels nouveaux services ou quelles démarches souhaitez-vous voir développés sur  Internet en priorité ?;111953;;;-
12c;9;Quelles améliorations préconiseriez-vous ? ;111953;;;-
13;10;Quand vous pensez à l'évolution des services publics au cours des dernières  années, quels sont ceux qui ont évolué de manière positive ?;111953;;;-
14;11;Quels sont les services publics qui doivent le plus évoluer selon vous ? ;111953;;;-
17c;14;Si oui, à quelle occasion en avez-vous fait usage ? ;6229;13;Oui; qu’ils avaient déjà utilisé le « droit à l'erreur »
18;15;Pouvez-vous identifier des règles que l'administration vous a déjà demandé  d'appliquer et que vous avez jugées inutiles ou trop complexes ?;111953;;;-
19b;17;Si oui, comment ? ;50574;16;Oui; qu’il faut donner plus d'autonomie aux fonctionnaires de terrain
20b;19;Si oui, comment ? ;63949;18;Oui; qu’il faut revoir le fonctionnement et la formation de l'administration
16.1;20;Comment l'Etat et les collectivités territoriales peuvent-ils s'améliorer pour  mieux répondre aux défis de nos territoires les plus en difficulté ?;111953;;;-
16.2;21;Si vous avez été amené à chercher une formation, pouvez-vous indiquer les  éléments de satisfaction et/ou les difficultés rencontrés en précisant, pour chaque point, l'administration concernée :;111953;;;-
16.3;22;Si vous avez été amené à scolariser votre enfant, pouvez-vous indiquer les  éléments de satisfaction et/ou les difficultés rencontrés en précisant, pour chaque point, l'administration concernée :;111953;;;-
16.4;23;Si vous avez été amené à chercher un emploi, pouvez-vous indiquer les  éléments de satisfaction et/ou les difficultés rencontrés en précisant, pour chaque point, l'administration concernée :;111953;;;-
16.5;24;Si vous avez été amené à préparer votre retraite, pouvez-vous indiquer les  éléments de satisfaction et/ou les difficultés rencontrés en précisant, pour chaque point,  l'administration concernée :;111953;;;-
16.6;25;Si vous avez été amené à demander un remboursement de soins de santé,  pouvez-vous indiquer les éléments de satisfaction et/ou les difficultés rencontrés en précisant, pour chaque point, l'administration concernée :;111953;;;-
16.7;26;Si vous avez été amené à faire une demande d'aide pour une situation de  handicap, pouvez-vous indiquer les éléments de satisfaction et/ou les difficultés rencontrés en précisant, pour chaque point, l'administration concernée :;111953;;;-
16.8;27;Si vous avez été amené à créer une entreprise, pouvez-vous indiquer les  éléments de satisfaction et/ou les difficultés rencontrés en précisant, pour chaque point, l'administration concernée :;111953;;;-
16.9;28;Si vous avez été amené à recruter du personnel, pouvez-vous indiquer les  éléments de satisfaction et/ou les difficultés rencontrés en précisant, pour chaque point, l'administration concernée :;111953;;;-
16.10;29;Si vous avez été amené à former du personnel, pouvez-vous indiquer les  éléments de satisfaction et/ou les difficultés rencontrés en précisant, pour chaque point, l'administration concernée :;111953;;;-
16.11;30;Si vous avez été amené à rémunérer du personnel, pouvez-vous indiquer  les éléments de satisfaction et/ou les difficultés rencontrés en précisant, pour chaque point, l'administration concernée :;111953;;;-
16.12;31;Si vous avez été amené à mettre fin à votre activité, pouvez-vous indiquer  les éléments de satisfaction et/ou les difficultés rencontrés en précisant, pour chaque point, l'administration concernée :;111953;;;-
16.13;32;Si vous avez été amené à recruter une personne portant un handicap, pouvez-vous indiquer les éléments de satisfaction et/ou les difficultés rencontrés en précisant, pour chaque point, l'administration concernée :;111953;;;-
21;33;Y a-t-il d'autres points sur l'organisation de l'Etat et des services publics sur  lesquels vous souhaiteriez vous exprimer ?;111953;;;-